*	54.0694444444
a	35.240067668
c	34.8530805687
b	34.3114571746
e	35.6472760154
d	35.4398143031
g	32.7191199464
f	34.7411347518
i	32.754903039
h	37.1553169199
k	36.1419290355
j	35.4319963117
m	36.6497307422
l	34.1938557435
o	33.4391391438
n	34.2199339538
q	33.4496494583
p	35.4681404421
s	41.073402989
r	34.705402958
u	31.3632263884
t	34.3892191142
w	33.8100366143
v	31.8637165304
y	36.2517730496
x	40.4975396391
z	41.3402173913
